<?xml version="1.0" encoding="utf-8"?>
<svg version="1.1" 
	 xmlns="http://www.w3.org/2000/svg" xmlns:xlink="http://www.w3.org/1999/xlink" x="0px" y="0px" 
	 viewBox="0 0 100 74" enable-background="new 0 0 100 74" xml:space="preserve">
<path opacity="0.95" fill="#FFFFFF" d="M0,0v74h100V0H0z M25,18.4h1.5h31.1h1.5v3h-1.5H26.5H25V18.4z M25,26.9h1.5h31.1h1.5v3h-1.5
	H26.5H25V26.9z M25,35.4h1.5h31.1h1.5v3h-1.5H26.5H25V35.4z M43.3,55.4h-1.5H26.5H25v-3h1.5h15.3h1.5V55.4z M43.3,46.9h-1.5H26.5H25
	v-3h1.5h15.3h1.5V46.9z M68.3,36v-3c3,0,5.001-3.3,5.001-6.3c0-1.8-0.701-3.3-1.801-4.4c-1.2-1.1-3-1.8-5.3-2v28.3v1.5
	c0,4.601-4.4,8.301-9.8,8.301c-5.301,0-9.8-3.601-9.8-8.301c0-4.6,4.4-8.3,9.8-8.3c2.6,0,5,0.8,6.8,2.3V17v-1.5h3V17v0.3
	c3.1,0.2,5.601,1.2,7.399,2.9c1.701,1.7,2.701,4,2.701,6.5C76.301,31.2,73.199,36,68.3,36z"/>
</svg>
